\boolfalse {citerequest}\boolfalse {citetracker}\boolfalse {pagetracker}\boolfalse {backtracker}\relax 
\defcounter {refsection}{0}\relax 
\select@language {danish}
\defcounter {refsection}{0}\relax 
\contentsline {chapter}{\numberline {1}Forord}{1}
\defcounter {refsection}{0}\relax 
\contentsline {chapter}{\numberline {2}Problemformulering}{2}
\defcounter {refsection}{0}\relax 
\contentsline {chapter}{\numberline {3}Hvad er en Football Manager?}{3}
\defcounter {refsection}{0}\relax 
\contentsline {subsection}{\numberline {3.0.1}Generelt}{3}
\defcounter {refsection}{0}\relax 
\contentsline {subsection}{\numberline {3.0.2}Fifa Manager}{3}
\defcounter {refsection}{0}\relax 
\contentsline {subsection}{\numberline {3.0.3}Football Manager}{3}
\defcounter {refsection}{0}\relax 
\contentsline {subsection}{\numberline {3.0.4}Virtual Manager}{4}
\defcounter {refsection}{0}\relax 
\contentsline {chapter}{\numberline {4}Analyse Produkter}{5}
\defcounter {refsection}{0}\relax 
\contentsline {section}{\numberline {4.1}Markedsanalyse}{5}
\defcounter {refsection}{0}\relax 
\contentsline {subsection}{\numberline {4.1.1}Konkurrenter}{5}
\defcounter {refsection}{0}\relax 
\contentsline {subsubsection}{SWOT}{5}
\defcounter {refsection}{0}\relax 
\contentsline {subsection}{\numberline {4.1.2}Kunder}{5}
\defcounter {refsection}{0}\relax 
\contentsline {subsubsection}{Kvalitative Unders\IeC {\o }gelser}{5}
\defcounter {refsection}{0}\relax 
\contentsline {paragraph}{Kvantitative unders\IeC {\o }gelser}{6}
\defcounter {refsection}{0}\relax 
\contentsline {subsubsection}{Persona}{6}
\defcounter {refsection}{0}\relax 
\contentsline {section}{\numberline {4.2}Use-case diagram og tekst}{6}
\defcounter {refsection}{0}\relax 
\contentsline {section}{\numberline {4.3}Klassediagram}{6}
\defcounter {refsection}{0}\relax 
\contentsline {section}{\numberline {4.4}H\IeC {\ae }ndelsestabel}{6}
\defcounter {refsection}{0}\relax 
\contentsline {section}{\numberline {4.5}ER-diagram}{6}
\defcounter {refsection}{0}\relax 
\contentsline {chapter}{\numberline {5}Konklusion}{7}
\defcounter {refsection}{0}\relax 
\contentsline {chapter}{\numberline {A}Bilag}{9}
